[
    {
        "topic": "updatelauncher",
	"alias": "ASUS_Z00L_93=Z00L,ASUS_Z00L_83=Z00L,ASUS_Z00L_68=Z00L,ASUS_Z00L_63=Z00L,ASUS_Z00W_83=Z00L,ASUS_Z00W_68=Z00L,ASUS_Z00W_63=Z00L,ASUS_Z00M=Z00L,ASUS_Z00L_63A=Z00L"
    }
]
